<svg width="500" height="500" viewBox="0 0 500 500" fill="none" xmlns="http://www.w3.org/2000/svg">
<rect width="500" height="500" fill="white"/>
<path d="M41 276.306C41 281.717 45.3706 286.103 50.762 286.103H87.8095C121.518 286.103 144.629 265.777 144.629 234.552C144.629 203.326 121.518 183 87.8095 183H52.1669C45.9996 183 41 188.018 41 194.207V231.862C41 238.051 45.9996 243.069 52.1669 243.069H53.6795C59.8468 243.069 64.8463 238.051 64.8463 231.862V213.797C64.8463 207.607 69.8459 202.59 76.0132 202.59H86.6319C107.093 202.59 120.488 214.815 120.488 234.552C120.488 254.073 107.384 266.246 87.3001 266.509H50.762C45.3706 266.509 41 270.896 41 276.306Z" fill="url(#paint0_radial)"/>
<path d="M88.2957 266.486C92.7618 268.156 97.5953 269.069 102.641 269.069C125.337 269.069 143.735 250.605 143.735 227.828C143.735 226.042 143.622 224.283 143.403 222.557C140.174 207.411 130.729 195.796 117.024 189.183C112.547 187.504 107.701 186.586 102.641 186.586C87.5842 186.586 74.4186 194.713 67.2619 206.835C69.3075 204.248 72.4674 202.59 76.0132 202.59H86.6319C107.093 202.59 120.488 214.815 120.488 234.552C120.488 253.749 107.816 265.839 88.2957 266.486Z" fill="url(#paint1_radial)"/>
<rect x="157.582" y="226" width="24.9107" height="60" rx="12.4554" fill="url(#paint2_radial)"/>
<ellipse cx="170.038" cy="207.5" rx="12.4554" ry="12.5" fill="url(#paint3_radial)"/>
<path d="M282.136 226C282.136 214.954 273.213 206 262.207 206H260.214V285C260.214 290.523 255.753 295 250.25 295H41V297C41 308.046 49.9223 317 60.9286 317H262.207C273.213 317 282.136 308.046 282.136 297V226Z" fill="url(#paint4_radial)"/>
<path fill-rule="evenodd" clip-rule="evenodd" d="M233.809 280C254.996 280 272.171 262.763 272.171 241.5C272.171 220.237 254.996 203 233.809 203C212.622 203 195.446 220.237 195.446 241.5C195.446 262.763 212.622 280 233.809 280ZM233.809 263C245.641 263 255.232 253.374 255.232 241.5C255.232 229.626 245.641 220 233.809 220C221.977 220 212.386 229.626 212.386 241.5C212.386 253.374 221.977 263 233.809 263Z" fill="url(#paint5_radial)"/>
<rect x="295.089" y="226" width="24.9107" height="91" rx="12.4554" fill="url(#paint6_radial)"/>
<ellipse cx="307.545" cy="207.5" rx="12.4554" ry="12.5" fill="url(#paint7_radial)"/>
<path d="M383.322 199.845C392.504 202.494 404.156 208.439 406.015 209.401V275.184C407.874 274.222 419.499 268.398 428.707 265.628C439.822 262.284 458.03 260.783 458.03 260.783V284.523C458.03 294.788 450.24 303.306 440.118 305.011C435.987 305.707 431.88 306.528 428.707 307.444C419.525 310.093 407.874 316.038 406.015 317V316.49C404.156 315.528 392.504 309.583 383.322 306.934C380.15 306.018 376.043 305.197 371.912 304.501C361.789 302.796 354 294.278 354 284.013V217.129C354 205.286 364.272 195.889 375.902 198.129C378.614 198.652 381.181 199.227 383.322 199.845Z" fill="#0BA3B8"/>
<path d="M428.707 199.845C430.848 199.227 433.415 198.652 436.128 198.129C447.757 195.889 458.03 205.286 458.03 217.129V218.713C458.03 218.713 438.715 220.669 428.707 223.557C419.525 226.207 407.874 232.151 406.015 233.113V209.401C407.874 208.439 419.525 202.494 428.707 199.845Z" fill="url(#paint8_radial)"/>
<path d="M406.015 238.978V267.025C407.874 266.063 419.525 260.118 428.707 257.469C438.715 254.581 458.03 252.624 458.03 252.624V224.577C458.03 224.577 438.715 226.534 428.707 229.422C419.525 232.071 407.874 238.016 406.015 238.978Z" fill="url(#paint9_radial)"/>
<path d="M397.02 235.047C397.938 235.481 399 234.816 399 233.801V233.801C399 233.278 398.705 232.8 398.232 232.574C395.653 231.341 388.336 227.959 382.422 226.346C376.626 224.765 366.557 223.588 362.632 223.168C361.754 223.074 361 223.764 361 224.648V224.648C361 225.438 361.609 226.094 362.397 226.154C365.976 226.425 375.602 227.27 381.467 228.87C386.688 230.295 393.581 233.419 397.02 235.047Z" fill="white"/>
<path d="M397.02 246.047C397.938 246.481 399 245.816 399 244.801V244.801C399 244.278 398.705 243.8 398.232 243.574C395.653 242.341 388.336 238.959 382.422 237.346C376.626 235.765 366.557 234.588 362.632 234.168C361.754 234.074 361 234.764 361 235.648V235.648C361 236.438 361.609 237.094 362.397 237.154C365.976 237.425 375.602 238.27 381.467 239.87C386.688 241.295 393.581 244.419 397.02 246.047Z" fill="white"/>
<path d="M397.02 259.047C397.938 259.481 399 258.816 399 257.801V257.801C399 257.278 398.705 256.8 398.232 256.574C395.653 255.341 388.336 251.959 382.422 250.346C376.626 248.765 366.557 247.588 362.632 247.168C361.754 247.074 361 247.764 361 248.648V248.648C361 249.438 361.609 250.094 362.397 250.154C365.976 250.425 375.602 251.27 381.467 252.87C386.688 254.295 393.581 257.419 397.02 259.047Z" fill="white"/>
<path d="M397.02 272.047C397.938 272.481 399 271.816 399 270.801V270.801C399 270.278 398.705 269.8 398.232 269.574C395.653 268.341 388.336 264.959 382.422 263.346C376.626 261.765 366.557 260.588 362.632 260.168C361.754 260.074 361 260.764 361 261.648V261.648C361 262.438 361.609 263.094 362.397 263.154C365.976 263.425 375.602 264.27 381.467 265.87C386.688 267.295 393.581 270.419 397.02 272.047Z" fill="white"/>
<defs>
<radialGradient id="paint0_radial" cx="0" cy="0" r="1" gradientUnits="userSpaceOnUse" gradientTransform="translate(142.395 158.345) rotate(133.447) scale(150.042 151.318)">
<stop offset="0.589574" stop-color="#1E8096"/>
<stop offset="1" stop-color="#4ADEFF"/>
</radialGradient>
<radialGradient id="paint1_radial" cx="0" cy="0" r="1" gradientUnits="userSpaceOnUse" gradientTransform="translate(71.3739 241.948) rotate(-28.323) scale(82.202 71.9503)">
<stop stop-color="#D6FDFF"/>
<stop offset="1" stop-color="#008799"/>
</radialGradient>
<radialGradient id="paint2_radial" cx="0" cy="0" r="1" gradientUnits="userSpaceOnUse" gradientTransform="translate(128.686 209) rotate(40.671) scale(196.405 334.259)">
<stop offset="0.0224339" stop-color="#1E8096"/>
<stop offset="0.805452" stop-color="#9DFFF3"/>
</radialGradient>
<radialGradient id="paint3_radial" cx="0" cy="0" r="1" gradientUnits="userSpaceOnUse" gradientTransform="translate(144.13 182.5) rotate(35.9733) scale(235.782 236.045)">
<stop stop-color="#1E8096"/>
<stop offset="0.717694" stop-color="#4ADEFF"/>
</radialGradient>
<radialGradient id="paint4_radial" cx="0" cy="0" r="1" gradientUnits="userSpaceOnUse" gradientTransform="translate(52.459 124.5) rotate(93.2308) scale(203.323 557.6)">
<stop offset="0.589376" stop-color="#1E8096"/>
<stop offset="1" stop-color="#00E0FF"/>
</radialGradient>
<radialGradient id="paint5_radial" cx="0" cy="0" r="1" gradientUnits="userSpaceOnUse" gradientTransform="translate(52.459 124.5) rotate(93.2308) scale(203.323 557.6)">
<stop offset="0.589376" stop-color="#1E8096"/>
<stop offset="1" stop-color="#00E0FF"/>
</radialGradient>
<radialGradient id="paint6_radial" cx="0" cy="0" r="1" gradientUnits="userSpaceOnUse" gradientTransform="translate(266.193 200.217) rotate(89.4285) scale(199.793 331.345)">
<stop offset="0.311163" stop-color="#1E8096"/>
<stop offset="0.636914" stop-color="#0FE2FF"/>
</radialGradient>
<radialGradient id="paint7_radial" cx="0" cy="0" r="1" gradientUnits="userSpaceOnUse" gradientTransform="translate(281.638 182.5) rotate(88.2085) scale(223.109 222.314)">
<stop offset="0.0727845" stop-color="#1E8096"/>
<stop offset="0.239191" stop-color="#4ADEFF"/>
</radialGradient>
<radialGradient id="paint8_radial" cx="0" cy="0" r="1" gradientUnits="userSpaceOnUse" gradientTransform="translate(345.678 174.593) rotate(88.4926) scale(158.18 691.659)">
<stop offset="0.311163" stop-color="#1E8096"/>
<stop offset="0.636914" stop-color="#0FE2FF"/>
</radialGradient>
<radialGradient id="paint9_radial" cx="0" cy="0" r="1" gradientUnits="userSpaceOnUse" gradientTransform="translate(345.678 174.593) rotate(88.4926) scale(158.18 691.659)">
<stop offset="0.311163" stop-color="#1E8096"/>
<stop offset="0.636914" stop-color="#0FE2FF"/>
</radialGradient>
</defs>
</svg>
